[
    {
        "bass_colors": [
            "#000000",
            "#000000",
            "#000000",
            "#000000",
            "#000000",
            "#000000",
            "#000000",
            "#000000",
            "#000000",
            "#000000",
            "#000000",
            "#000000",
            "#000000",
            "#000000",
            "#000000",
            "#000000",
            "#000000",
            "#000000",
            "#000000",
            "#000000",
            "#000000",
            "#000000",
            "#000000",
            "#000000",
            "#000000",
            "#000000",
            "#000000",
            "#000000",
            "#000000",
            "#000000",
            "#000000",
            "#000000",
            "#000000",
            "#000000",
            "#000000",
            "#000000",
            "#000000",
            "#000000",
            "#000000",
            "#000000",
            "#000000",
            "#000000",
            "#000000",
            "#000000",
            "#000000",
            "#9000ff",
            "#b7468b",
            "#ab0034",
            "#ff7f00",
            "#33cc33",
            "#8ec9ff",
            "#ffff00",
            "#b7468b",
            "#b7468b",
            "#b7468b",
            "#b7468b",
            "#b7468b",
            "#b7468b",
            "#b7468b",
            "#b7468b",
            "#b7468b",
            "#b7468b",
            "#b7468b",
            "#b7468b",
            "#b7468b",
            "#b7468b",
            "#b7468b",
            "#b7468b",
            "#b7468b",
            "#b7468b",
            "#b7468b",
            "#b7468b",
            "#b7468b",
            "#b7468b",
            "#b7468b",
            "#b7468b",
            "#b7468b",
            "#b7468b",
            "#b7468b",
            "#b7468b",
            "#b7468b",
            "#b7468b",
            "#b7468b",
            "#b7468b",
            "#b7468b",
            "#b7468b",
            "#b7468b",
            "#b7468b",
            "#b7468b",
            "#b7468b",
            "#b7468b",
            "#b7468b",
            "#b7468b",
            "#b7468b",
            "#b7468b",
            "#b7468b",
            "#b7468b",
            "#b7468b",
            "#b7468b",
            "#b7468b",
            "#b7468b",
            "#b7468b",
            "#c3f2ff",
            "#c3f2ff",
            "#c3f2ff",
            "#c3f2ff",
            "#c3f2ff",
            "#c3f2ff",
            "#b7468b",
            "#b7468b",
            "#ffff00",
            "#ffff00",
            "#ffff00",
            "#ffff00",
            "#ffff00",
            "#ffff00",
            "#b7468b",
            "#b7468b",
            "#b7468b",
            "#b7468b",
            "#c3f2ff",
            "#c3f2ff",
            "#c3f2ff",
            "#c3f2ff",
            "#b7468b",
            "#b7468b",
            "#b7468b",
            "#ffff00",
            "#ffff00",
            "#ffff00",
            "#ffff00",
            "#b7468b",
            "#b7468b",
            "#b7468b",
            "#b7468b",
            "#c3f2ff",
            "#c3f2ff",
            "#c3f2ff",
            "#b7468b",
            "#b7468b",
            "#b7468b",
            "#ffff00",
            "#ffff00",
            "#ffff00",
            "#9000ff",
            "#9000ff",
            "#9000ff",
            "#9000ff",
            "#9000ff",
            "#b7468b",
            "#c3f2ff",
            "#c3f2ff",
            "#c3f2ff",
            "#c3f2ff",
            "#c3f2ff",
            "#c3f2ff",
            "#ab0034",
            "#ab0034",
            "#ab0034",
            "#ab0034",
            "#ab0034",
            "#ab0034",
            "#ab0034",
            "#ab0034",
            "#ab0034",
            "#ab0034",
            "#ab0034",
            "#ab0034",
            "#ab0034",
            "#ab0034",
            "#ab0034",
            "#ab0034",
            "#ab0034",
            "#7f8bfd",
            "#bb75fc",
            "#bb75fc",
            "#bb75fc",
            "#bb75fc",
            "#bb75fc",
            "#bb75fc",
            "#bb75fc",
            "#bb75fc",
            "#bb75fc",
            "#bb75fc",
            "#bb75fc",
            "#bb75fc",
            "#bb75fc",
            "#bb75fc",
            "#bb75fc",
            "#ff7f00",
            "#ff7f00",
            "#ff7f00",
            "#ff7f00",
            "#ff7f00",
            "#ff7f00",
            "#ff7f00",
            "#ff7f00",
            "#ff7f00",
            "#ff7f00",
            "#ff7f00",
            "#ff7f00",
            "#ff7f00",
            "#ff7f00",
            "#ff7f00",
            "#ff7f00",
            "#ff7f00",
            "#ff7f00",
            "#ff7f00",
            "#ff7f00",
            "#ff7f00",
            "#ff7f00",
            "#ff7f00",
            "#ff7f00",
            "#ff7f00",
            "#ff7f00",
            "#ff7f00",
            "#ff7f00",
            "#ff7f00",
            "#ff7f00",
            "#ff7f00",
            "#ff7f00",
            "#ff7f00",
            "#ff7f00",
            "#ff7f00",
            "#ff7f00",
            "#ff7f00",
            "#ff7f00",
            "#ff7f00",
            "#ff7f00",
            "#ff7f00",
            "#ff7f00",
            "#ff7f00",
            "#ff7f00",
            "#bb75fc",
            "#bb75fc",
            "#bb75fc",
            "#bb75fc",
            "#bb75fc",
            "#bb75fc",
            "#bb75fc",
            "#bb75fc",
            "#bb75fc",
            "#bb75fc",
            "#bb75fc",
            "#bb75fc",
            "#bb75fc",
            "#bb75fc",
            "#bb75fc",
            "#bb75fc",
            "#bb75fc",
            "#bb75fc",
            "#bb75fc",
            "#bb75fc",
            "#bb75fc",
            "#bb75fc",
            "#bb75fc",
            "#bb75fc",
            "#bb75fc",
            "#bb75fc",
            "#bb75fc",
            "#bb75fc",
            "#bb75fc",
            "#bb75fc",
            "#bb75fc",
            "#bb75fc",
            "#bb75fc",
            "#bb75fc",
            "#bb75fc",
            "#bb75fc",
            "#bb75fc",
            "#bb75fc",
            "#bb75fc",
            "#bb75fc",
            "#bb75fc",
            "#bb75fc",
            "#bb75fc",
            "#bb75fc",
            "#bb75fc",
            "#bb75fc",
            "#bb75fc",
            "#bb75fc",
            "#bb75fc",
            "#bb75fc",
            "#bb75fc",
            "#bb75fc",
            "#ff7f00",
            "#ff7f00",
            "#ff7f00",
            "#bb75fc",
            "#bb75fc",
            "#33cc33",
            "#a9677c",
            "#a9677c",
            "#a9677c",
            "#a9677c",
            "#a9677c",
            "#a9677c",
            "#a9677c",
            "#a9677c",
            "#a9677c",
            "#a9677c",
            "#a9677c",
            "#a9677c",
            "#a9677c",
            "#a9677c",
            "#a9677c",
            "#a9677c",
            "#a9677c",
            "#a9677c",
            "#a9677c",
            "#a9677c",
            "#a9677c",
            "#a9677c",
            "#a9677c",
            "#a9677c",
            "#a9677c",
            "#a9677c",
            "#a9677c",
            "#a9677c",
            "#a9677c",
            "#a9677c",
            "#a9677c",
            "#a9677c",
            "#a9677c",
            "#a9677c",
            "#a9677c",
            "#a9677c",
            "#a9677c",
            "#a9677c",
            "#a9677c",
            "#a9677c",
            "#a9677c",
            "#a9677c",
            "#a9677c",
            "#a9677c",
            "#a9677c",
            "#a9677c",
            "#33cc33",
            "#33cc33",
            "#33cc33",
            "#bb75fc",
            "#bb75fc",
            "#bb75fc",
            "#bb75fc",
            "#bb75fc",
            "#bb75fc",
            "#bb75fc",
            "#bb75fc",
            "#bb75fc",
            "#bb75fc",
            "#bb75fc",
            "#bb75fc",
            "#bb75fc",
            "#bb75fc",
            "#bb75fc",
            "#bb75fc",
            "#bb75fc",
            "#bb75fc",
            "#bb75fc",
            "#bb75fc",
            "#bb75fc",
            "#bb75fc",
            "#bb75fc",
            "#bb75fc",
            "#bb75fc",
            "#bb75fc",
            "#bb75fc",
            "#bb75fc",
            "#bb75fc",
            "#bb75fc",
            "#bb75fc",
            "#bb75fc",
            "#bb75fc",
            "#bb75fc",
            "#bb75fc",
            "#bb75fc",
            "#bb75fc",
            "#bb75fc",
            "#bb75fc",
            "#bb75fc",
            "#bb75fc",
            "#bb75fc",
            "#bb75fc",
            "#bb75fc",
            "#bb75fc",
            "#bb75fc",
            "#bb75fc",
            "#bb75fc",
            "#bb75fc",
            "#bb75fc",
            "#bb75fc",
            "#bb75fc",
            "#bb75fc",
            "#bb75fc",
            "#bb75fc",
            "#bb75fc",
            "#bb75fc",
            "#bb75fc",
            "#bb75fc",
            "#bb75fc",
            "#bb75fc",
            "#bb75fc",
            "#bb75fc",
            "#bb75fc",
            "#bb75fc",
            "#bb75fc",
            "#bb75fc",
            "#bb75fc",
            "#bb75fc",
            "#bb75fc",
            "#bb75fc",
            "#bb75fc",
            "#bb75fc",
            "#bb75fc",
            "#bb75fc",
            "#bb75fc",
            "#bb75fc",
            "#bb75fc",
            "#bb75fc",
            "#bb75fc",
            "#bb75fc",
            "#bb75fc",
            "#bb75fc",
            "#bb75fc",
            "#bb75fc",
            "#bb75fc",
            "#bb75fc",
            "#bb75fc",
            "#bb75fc",
            "#bb75fc",
            "#bb75fc",
            "#bb75fc",
            "#bb75fc",
            "#bb75fc",
            "#bb75fc",
            "#bb75fc",
            "#bb75fc",
            "#bb75fc",
            "#bb75fc",
            "#bb75fc",
            "#bb75fc",
            "#bb75fc",
            "#bb75fc",
            "#bb75fc",
            "#bb75fc",
            "#bb75fc",
            "#bb75fc",
            "#bb75fc",
            "#bb75fc",
            "#bb75fc",
            "#bb75fc",
            "#bb75fc",
            "#bb75fc",
            "#bb75fc",
            "#bb75fc",
            "#bb75fc",
            "#bb75fc",
            "#bb75fc",
            "#bb75fc",
            "#bb75fc",
            "#bb75fc",
            "#bb75fc",
            "#bb75fc",
            "#bb75fc",
            "#bb75fc",
            "#bb75fc",
            "#bb75fc",
            "#bb75fc",
            "#bb75fc",
            "#bb75fc",
            "#bb75fc",
            "#bb75fc",
            "#bb75fc",
            "#bb75fc",
            "#bb75fc",
            "#bb75fc",
            "#bb75fc",
            "#bb75fc",
            "#bb75fc",
            "#bb75fc",
            "#bb75fc",
            "#bb75fc",
            "#bb75fc",
            "#bb75fc",
            "#bb75fc",
            "#bb75fc",
            "#bb75fc",
            "#bb75fc",
            "#bb75fc",
            "#bb75fc",
            "#bb75fc",
            "#bb75fc",
            "#bb75fc",
            "#bb75fc",
            "#bb75fc",
            "#bb75fc",
            "#bb75fc",
            "#bb75fc",
            "#bb75fc",
            "#bb75fc",
            "#bb75fc",
            "#bb75fc",
            "#bb75fc",
            "#bb75fc",
            "#bb75fc",
            "#bb75fc",
            "#bb75fc",
            "#bb75fc",
            "#bb75fc",
            "#bb75fc",
            "#bb75fc",
            "#bb75fc",
            "#bb75fc",
            "#bb75fc",
            "#bb75fc",
            "#bb75fc",
            "#bb75fc",
            "#bb75fc",
            "#bb75fc",
            "#bb75fc",
            "#bb75fc",
            "#bb75fc",
            "#bb75fc",
            "#bb75fc",
            "#bb75fc",
            "#bb75fc",
            "#bb75fc",
            "#bb75fc",
            "#bb75fc",
            "#bb75fc",
            "#bb75fc",
            "#bb75fc",
            "#bb75fc",
            "#bb75fc",
            "#bb75fc",
            "#bb75fc",
            "#bb75fc",
            "#bb75fc",
            "#bb75fc",
            "#bb75fc",
            "#bb75fc",
            "#bb75fc",
            "#bb75fc",
            "#bb75fc",
            "#bb75fc",
            "#bb75fc",
            "#bb75fc",
            "#bb75fc",
            "#bb75fc",
            "#bb75fc",
            "#bb75fc",
            "#bb75fc",
            "#bb75fc",
            "#bb75fc",
            "#bb75fc",
            "#bb75fc",
            "#bb75fc",
            "#bb75fc",
            "#bb75fc",
            "#bb75fc",
            "#bb75fc",
            "#bb75fc",
            "#bb75fc",
            "#bb75fc",
            "#bb75fc",
            "#bb75fc",
            "#bb75fc",
            "#bb75fc",
            "#bb75fc",
            "#bb75fc",
            "#bb75fc",
            "#bb75fc",
            "#bb75fc",
            "#bb75fc",
            "#bb75fc",
            "#bb75fc",
            "#bb75fc",
            "#bb75fc",
            "#bb75fc",
            "#bb75fc",
            "#bb75fc",
            "#bb75fc",
            "#bb75fc",
            "#bb75fc",
            "#bb75fc",
            "#bb75fc",
            "#bb75fc",
            "#bb75fc",
            "#bb75fc",
            "#bb75fc",
            "#bb75fc",
            "#bb75fc",
            "#bb75fc",
            "#bb75fc",
            "#ff7f00",
            "#ff7f00",
            "#7f8bfd",
            "#ab0034",
            "#ab0034",
            "#c3f2ff",
            "#b7468b",
            "#b7468b",
            "#b7468b",
            "#b7468b",
            "#b7468b",
            "#b7468b",
            "#b7468b",
            "#c3f2ff",
            "#b7468b",
            "#b7468b",
            "#b7468b",
            "#b7468b",
            "#b7468b",
            "#b7468b",
            "#b7468b",
            "#ffff00",
            "#ffff00",
            "#ffff00",
            "#ffff00",
            "#ffff00",
            "#ffff00",
            "#b7468b",
            "#b7468b",
            "#b7468b",
            "#b7468b",
            "#b7468b",
            "#b7468b",
            "#b7468b",
            "#b7468b",
            "#b7468b",
            "#b7468b",
            "#b7468b",
            "#b7468b",
            "#b7468b",
            "#b7468b",
            "#b7468b",
            "#b7468b",
            "#b7468b",
            "#b7468b",
            "#b7468b",
            "#b7468b",
            "#b7468b",
            "#b7468b",
            "#b7468b",
            "#b7468b",
            "#b7468b",
            "#b7468b",
            "#b7468b",
            "#b7468b",
            "#b7468b",
            "#b7468b",
            "#b7468b",
            "#b7468b",
            "#b7468b",
            "#b7468b",
            "#b7468b",
            "#b7468b",
            "#b7468b",
            "#b7468b",
            "#b7468b",
            "#ffff00",
            "#8ec9ff",
            "#a9677c",
            "#bb75fc",
            "#7f8bfd",
            "#c3f2ff",
            "#b7468b",
            "#b7468b",
            "#b7468b",
            "#b7468b",
            "#b7468b",
            "#b7468b",
            "#b7468b",
            "#b7468b",
            "#b7468b",
            "#b7468b",
            "#b7468b",
            "#b7468b",
            "#b7468b",
            "#b7468b",
            "#b7468b",
            "#b7468b",
            "#b7468b",
            "#b7468b",
            "#b7468b",
            "#b7468b",
            "#b7468b",
            "#b7468b",
            "#b7468b",
            "#b7468b",
            "#b7468b",
            "#b7468b",
            "#b7468b",
            "#b7468b",
            "#b7468b",
            "#b7468b",
            "#b7468b",
            "#b7468b",
            "#b7468b",
            "#b7468b",
            "#b7468b",
            "#b7468b",
            "#b7468b",
            "#b7468b",
            "#b7468b",
            "#b7468b",
            "#b7468b",
            "#b7468b",
            "#b7468b",
            "#b7468b",
            "#b7468b",
            "#b7468b",
            "#b7468b",
            "#b7468b",
            "#b7468b",
            "#b7468b",
            "#b7468b",
            "#c3f2ff",
            "#ff7f00",
            "#33cc33",
            "#8ec9ff",
            "#9000ff",
            "#b7468b",
            "#b7468b",
            "#b7468b",
            "#b7468b",
            "#b7468b",
            "#b7468b",
            "#b7468b",
            "#b7468b",
            "#b7468b",
            "#b7468b",
            "#b7468b",
            "#b7468b",
            "#b7468b",
            "#b7468b",
            "#b7468b",
            "#b7468b",
            "#b7468b",
            "#9000ff",
            "#8ec9ff",
            "#33cc33",
            "#ff7f00",
            "#c3f2ff",
            "#b7468b",
            "#b7468b",
            "#b7468b",
            "#b7468b",
            "#b7468b",
            "#b7468b",
            "#b7468b",
            "#b7468b",
            "#b7468b",
            "#b7468b",
            "#b7468b",
            "#b7468b",
            "#b7468b",
            "#b7468b",
            "#b7468b",
            "#b7468b",
            "#b7468b",
            "#b7468b",
            "#b7468b",
            "#b7468b",
            "#b7468b",
            "#b7468b",
            "#b7468b",
            "#b7468b",
            "#b7468b",
            "#b7468b",
            "#b7468b",
            "#b7468b",
            "#c3f2ff",
            "#ff7f00",
            "#33cc33",
            "#8ec9ff",
            "#9000ff",
            "#b7468b",
            "#b7468b",
            "#b7468b",
            "#b7468b",
            "#b7468b",
            "#b7468b",
            "#b7468b",
            "#b7468b",
            "#b7468b",
            "#b7468b",
            "#b7468b",
            "#b7468b",
            "#b7468b",
            "#b7468b",
            "#b7468b",
            "#b7468b",
            "#b7468b",
            "#b7468b",
            "#b7468b",
            "#b7468b",
            "#b7468b",
            "#b7468b",
            "#b7468b",
            "#b7468b",
            "#b7468b",
            "#b7468b",
            "#b7468b",
            "#b7468b",
            "#b7468b",
            "#b7468b",
            "#b7468b",
            "#b7468b",
            "#b7468b",
            "#b7468b",
            "#b7468b",
            "#b7468b",
            "#b7468b",
            "#b7468b",
            "#b7468b",
            "#b7468b",
            "#b7468b",
            "#b7468b",
            "#b7468b",
            "#b7468b",
            "#b7468b",
            "#b7468b",
            "#b7468b",
            "#b7468b",
            "#b7468b",
            "#b7468b",
            "#b7468b",
            "#b7468b",
            "#b7468b",
            "#b7468b",
            "#b7468b",
            "#b7468b",
            "#b7468b",
            "#b7468b",
            "#b7468b",
            "#b7468b",
            "#b7468b",
            "#b7468b",
            "#b7468b",
            "#b7468b",
            "#b7468b",
            "#b7468b",
            "#b7468b",
            "#b7468b",
            "#b7468b",
            "#b7468b",
            "#b7468b",
            "#b7468b",
            "#b7468b",
            "#b7468b",
            "#b7468b",
            "#b7468b",
            "#b7468b",
            "#b7468b",
            "#b7468b",
            "#b7468b",
            "#b7468b",
            "#b7468b",
            "#b7468b",
            "#b7468b",
            "#b7468b",
            "#b7468b",
            "#b7468b",
            "#b7468b",
            "#b7468b",
            "#b7468b",
            "#b7468b",
            "#b7468b",
            "#b7468b",
            "#b7468b",
            "#b7468b",
            "#b7468b",
            "#b7468b",
            "#b7468b",
            "#b7468b",
            "#b7468b",
            "#b7468b",
            "#c3f2ff",
            "#b7468b",
            "#b7468b",
            "#b7468b",
            "#b7468b",
            "#b7468b",
            "#b7468b",
            "#b7468b",
            "#b7468b",
            "#b7468b",
            "#ffff00",
            "#ffff00",
            "#ffff00",
            "#ffff00",
            "#b7468b",
            "#b7468b",
            "#b7468b",
            "#b7468b",
            "#b7468b",
            "#b7468b",
            "#b7468b",
            "#b7468b",
            "#b7468b",
            "#b7468b",
            "#b7468b",
            "#b7468b",
            "#b7468b",
            "#b7468b",
            "#ffff00",
            "#ffff00",
            "#ffff00",
            "#ffff00",
            "#b7468b",
            "#b7468b",
            "#b7468b",
            "#b7468b",
            "#b7468b",
            "#b7468b",
            "#b7468b",
            "#b7468b",
            "#b7468b",
            "#b7468b",
            "#b7468b",
            "#b7468b",
            "#b7468b",
            "#b7468b",
            "#b7468b",
            "#b7468b",
            "#b7468b",
            "#b7468b",
            "#b7468b",
            "#b7468b",
            "#b7468b",
            "#b7468b",
            "#b7468b",
            "#b7468b",
            "#b7468b",
            "#b7468b",
            "#b7468b",
            "#b7468b",
            "#b7468b",
            "#b7468b",
            "#b7468b",
            "#b7468b",
            "#b7468b",
            "#b7468b",
            "#ffff00",
            "#ffff00",
            "#ffff00",
            "#b7468b",
            "#b7468b",
            "#c3f2ff",
            "#ab0034",
            "#7f8bfd",
            "#ff7f00",
            "#ff7f00",
            "#bb75fc",
            "#33cc33",
            "#8ec9ff",
            "#8ec9ff",
            "#ff0000",
            "#ffff00",
            "#b7468b",
            "#b7468b",
            "#b7468b",
            "#c3f2ff",
            "#ab0034",
            "#ff7f00",
            "#ff7f00",
            "#bb75fc",
            "#bb75fc",
            "#a9677c",
            "#ff0000",
            "#ffff00",
            "#c3f2ff",
            "#c3f2ff",
            "#b7468b",
            "#c3f2ff",
            "#c3f2ff",
            "#c3f2ff",
            "#c3f2ff",
            "#c3f2ff",
            "#c3f2ff",
            "#c3f2ff",
            "#c3f2ff",
            "#c3f2ff",
            "#c3f2ff",
            "#c3f2ff",
            "#c3f2ff",
            "#c3f2ff",
            "#c3f2ff",
            "#c3f2ff",
            "#c3f2ff",
            "#c3f2ff",
            "#c3f2ff",
            "#c3f2ff",
            "#c3f2ff",
            "#c3f2ff",
            "#c3f2ff",
            "#b7468b",
            "#c3f2ff",
            "#c3f2ff",
            "#c3f2ff"
        ],
        "bari_colors": [
            "#000000",
            "#000000",
            "#000000",
            "#000000",
            "#000000",
            "#000000",
            "#000000",
            "#000000",
            "#000000",
            "#000000",
            "#000000",
            "#000000",
            "#000000",
            "#000000",
            "#000000",
            "#000000",
            "#000000",
            "#000000",
            "#000000",
            "#000000",
            "#000000",
            "#000000",
            "#000000",
            "#000000",
            "#000000",
            "#000000",
            "#000000",
            "#000000",
            "#000000",
            "#000000",
            "#000000",
            "#000000",
            "#000000",
            "#000000",
            "#000000",
            "#000000",
            "#000000",
            "#000000",
            "#000000",
            "#000000",
            "#000000",
            "#000000",
            "#000000",
            "#000000",
            "#9000ff",
            "#b7468b",
            "#ab0034",
            "#ff7f00",
            "#33cc33",
            "#8ec9ff",
            "#9000ff",
            "#b7468b",
            "#b7468b",
            "#b7468b",
            "#b7468b",
            "#b7468b",
            "#b7468b",
            "#b7468b",
            "#b7468b",
            "#b7468b",
            "#b7468b",
            "#b7468b",
            "#b7468b",
            "#b7468b",
            "#b7468b",
            "#b7468b",
            "#b7468b",
            "#b7468b",
            "#b7468b",
            "#b7468b",
            "#b7468b",
            "#b7468b",
            "#b7468b",
            "#b7468b",
            "#b7468b",
            "#b7468b",
            "#b7468b",
            "#b7468b",
            "#b7468b",
            "#b7468b",
            "#b7468b",
            "#b7468b",
            "#b7468b",
            "#b7468b",
            "#b7468b",
            "#b7468b",
            "#b7468b",
            "#b7468b",
            "#b7468b",
            "#b7468b",
            "#b7468b",
            "#b7468b",
            "#ffff00",
            "#ffff00",
            "#ffff00",
            "#b7468b",
            "#b7468b",
            "#b7468b",
            "#c3f2ff",
            "#c3f2ff",
            "#c3f2ff",
            "#c3f2ff",
            "#c3f2ff",
            "#b7468b",
            "#b7468b",
            "#b7468b",
            "#ffff00",
            "#ffff00",
            "#ffff00",
            "#ffff00",
            "#ffff00",
            "#ffff00",
            "#b7468b",
            "#b7468b",
            "#b7468b",
            "#b7468b",
            "#c3f2ff",
            "#c3f2ff",
            "#c3f2ff",
            "#b7468b",
            "#b7468b",
            "#b7468b",
            "#b7468b",
            "#b7468b",
            "#ffff00",
            "#ffff00",
            "#ffff00",
            "#ffff00",
            "#b7468b",
            "#b7468b",
            "#b7468b",
            "#b7468b",
            "#b7468b",
            "#b7468b",
            "#c3f2ff",
            "#c3f2ff",
            "#b7468b",
            "#b7468b",
            "#b7468b",
            "#b7468b",
            "#b7468b",
            "#b7468b",
            "#b7468b",
            "#b7468b",
            "#b7468b",
            "#ffff00",
            "#ffff00",
            "#b7468b",
            "#b7468b",
            "#b7468b",
            "#c3f2ff",
            "#c3f2ff",
            "#c3f2ff",
            "#c3f2ff",
            "#ab0034",
            "#ab0034",
            "#ab0034",
            "#ab0034",
            "#ab0034",
            "#ab0034",
            "#ab0034",
            "#ab0034",
            "#ab0034",
            "#ab0034",
            "#ab0034",
            "#ab0034",
            "#ab0034",
            "#ab0034",
            "#ab0034",
            "#ab0034",
            "#ab0034",
            "#ab0034",
            "#ab0034",
            "#ab0034",
            "#7f8bfd",
            "#bb75fc",
            "#bb75fc",
            "#bb75fc",
            "#bb75fc",
            "#bb75fc",
            "#ff7f00",
            "#7f8bfd",
            "#7f8bfd",
            "#7f8bfd",
            "#ab0034",
            "#7f8bfd",
            "#ff7f00",
            "#ff7f00",
            "#ff7f00",
            "#ff7f00",
            "#ff7f00",
            "#ff7f00",
            "#ff7f00",
            "#ff7f00",
            "#ff7f00",
            "#ff7f00",
            "#ff7f00",
            "#ff7f00",
            "#ff7f00",
            "#ff7f00",
            "#ff7f00",
            "#ff7f00",
            "#ff7f00",
            "#ff7f00",
            "#ff7f00",
            "#ff7f00",
            "#ff7f00",
            "#ff7f00",
            "#ff7f00",
            "#ff7f00",
            "#ff7f00",
            "#ff7f00",
            "#ff7f00",
            "#ff7f00",
            "#ff7f00",
            "#ff7f00",
            "#ff7f00",
            "#ff7f00",
            "#ff7f00",
            "#ff7f00",
            "#ff7f00",
            "#ff7f00",
            "#ff7f00",
            "#ff7f00",
            "#ff7f00",
            "#ff7f00",
            "#ff7f00",
            "#ff7f00",
            "#ff7f00",
            "#ff7f00",
            "#7f8bfd",
            "#7f8bfd",
            "#7f8bfd",
            "#7f8bfd",
            "#7f8bfd",
            "#ff7f00",
            "#ff7f00",
            "#ff7f00",
            "#bb75fc",
            "#bb75fc",
            "#bb75fc",
            "#bb75fc",
            "#bb75fc",
            "#bb75fc",
            "#bb75fc",
            "#bb75fc",
            "#bb75fc",
            "#bb75fc",
            "#bb75fc",
            "#bb75fc",
            "#bb75fc",
            "#bb75fc",
            "#bb75fc",
            "#bb75fc",
            "#bb75fc",
            "#bb75fc",
            "#bb75fc",
            "#bb75fc",
            "#bb75fc",
            "#bb75fc",
            "#bb75fc",
            "#bb75fc",
            "#bb75fc",
            "#bb75fc",
            "#bb75fc",
            "#bb75fc",
            "#bb75fc",
            "#bb75fc",
            "#bb75fc",
            "#bb75fc",
            "#bb75fc",
            "#bb75fc",
            "#bb75fc",
            "#bb75fc",
            "#bb75fc",
            "#bb75fc",
            "#bb75fc",
            "#bb75fc",
            "#bb75fc",
            "#bb75fc",
            "#bb75fc",
            "#bb75fc",
            "#bb75fc",
            "#bb75fc",
            "#bb75fc",
            "#bb75fc",
            "#bb75fc",
            "#33cc33",
            "#a9677c",
            "#a9677c",
            "#a9677c",
            "#a9677c",
            "#a9677c",
            "#a9677c",
            "#a9677c",
            "#a9677c",
            "#a9677c",
            "#a9677c",
            "#a9677c",
            "#a9677c",
            "#a9677c",
            "#a9677c",
            "#a9677c",
            "#a9677c",
            "#a9677c",
            "#a9677c",
            "#a9677c",
            "#a9677c",
            "#a9677c",
            "#a9677c",
            "#a9677c",
            "#a9677c",
            "#a9677c",
            "#a9677c",
            "#a9677c",
            "#a9677c",
            "#a9677c",
            "#a9677c",
            "#a9677c",
            "#a9677c",
            "#a9677c",
            "#a9677c",
            "#a9677c",
            "#a9677c",
            "#a9677c",
            "#a9677c",
            "#a9677c",
            "#a9677c",
            "#a9677c",
            "#a9677c",
            "#a9677c",
            "#a9677c",
            "#a9677c",
            "#33cc33",
            "#a9677c",
            "#a9677c",
            "#a9677c",
            "#8ec9ff",
            "#ff0000",
            "#ff0000",
            "#ff0000",
            "#ff0000",
            "#ff0000",
            "#ff0000",
            "#ff0000",
            "#ff0000",
            "#ff0000",
            "#ff0000",
            "#ff0000",
            "#ff0000",
            "#ff0000",
            "#ff0000",
            "#ff0000",
            "#ff0000",
            "#ff0000",
            "#ff0000",
            "#ff0000",
            "#ff0000",
            "#ff0000",
            "#ff0000",
            "#ff0000",
            "#ff0000",
            "#ff0000",
            "#ff0000",
            "#ff0000",
            "#ff0000",
            "#ff0000",
            "#ff0000",
            "#ff0000",
            "#ff0000",
            "#ff0000",
            "#ff0000",
            "#ff0000",
            "#ff0000",
            "#ff0000",
            "#ff0000",
            "#ff0000",
            "#ff0000",
            "#ff0000",
            "#ff0000",
            "#ff0000",
            "#ff0000",
            "#ff0000",
            "#ff0000",
            "#ff0000",
            "#ff0000",
            "#ff0000",
            "#ff0000",
            "#ff0000",
            "#ff0000",
            "#ff0000",
            "#ff0000",
            "#ff0000",
            "#ff0000",
            "#ff0000",
            "#ff0000",
            "#ff0000",
            "#ff0000",
            "#ff0000",
            "#ff0000",
            "#ff0000",
            "#ff0000",
            "#ff0000",
            "#ff0000",
            "#ff0000",
            "#ff0000",
            "#ff0000",
            "#ff0000",
            "#ff0000",
            "#ff0000",
            "#ff0000",
            "#ff0000",
            "#ff0000",
            "#ff0000",
            "#ff0000",
            "#ff0000",
            "#ff0000",
            "#ff0000",
            "#ff0000",
            "#ff0000",
            "#ff0000",
            "#ff0000",
            "#ff0000",
            "#ff0000",
            "#ff0000",
            "#ff0000",
            "#ff0000",
            "#ff0000",
            "#ff0000",
            "#ff0000",
            "#ff0000",
            "#ff0000",
            "#ff0000",
            "#ff0000",
            "#ff0000",
            "#ff0000",
            "#ff0000",
            "#ff0000",
            "#ff0000",
            "#ff0000",
            "#ff0000",
            "#ff0000",
            "#ff0000",
            "#ff0000",
            "#ff0000",
            "#ff0000",
            "#ff0000",
            "#ff0000",
            "#ff0000",
            "#ff0000",
            "#ff0000",
            "#ff0000",
            "#ff0000",
            "#ff0000",
            "#ff0000",
            "#8ec9ff",
            "#8ec9ff",
            "#8ec9ff",
            "#8ec9ff",
            "#8ec9ff",
            "#8ec9ff",
            "#8ec9ff",
            "#8ec9ff",
            "#8ec9ff",
            "#8ec9ff",
            "#8ec9ff",
            "#8ec9ff",
            "#8ec9ff",
            "#8ec9ff",
            "#8ec9ff",
            "#8ec9ff",
            "#8ec9ff",
            "#8ec9ff",
            "#8ec9ff",
            "#8ec9ff",
            "#8ec9ff",
            "#8ec9ff",
            "#8ec9ff",
            "#8ec9ff",
            "#8ec9ff",
            "#8ec9ff",
            "#8ec9ff",
            "#8ec9ff",
            "#8ec9ff",
            "#8ec9ff",
            "#8ec9ff",
            "#8ec9ff",
            "#8ec9ff",
            "#8ec9ff",
            "#8ec9ff",
            "#8ec9ff",
            "#8ec9ff",
            "#8ec9ff",
            "#8ec9ff",
            "#8ec9ff",
            "#8ec9ff",
            "#8ec9ff",
            "#8ec9ff",
            "#8ec9ff",
            "#8ec9ff",
            "#8ec9ff",
            "#8ec9ff",
            "#8ec9ff",
            "#8ec9ff",
            "#8ec9ff",
            "#8ec9ff",
            "#8ec9ff",
            "#8ec9ff",
            "#8ec9ff",
            "#8ec9ff",
            "#8ec9ff",
            "#8ec9ff",
            "#8ec9ff",
            "#8ec9ff",
            "#8ec9ff",
            "#8ec9ff",
            "#8ec9ff",
            "#8ec9ff",
            "#8ec9ff",
            "#8ec9ff",
            "#8ec9ff",
            "#8ec9ff",
            "#8ec9ff",
            "#8ec9ff",
            "#8ec9ff",
            "#8ec9ff",
            "#8ec9ff",
            "#8ec9ff",
            "#8ec9ff",
            "#8ec9ff",
            "#8ec9ff",
            "#8ec9ff",
            "#8ec9ff",
            "#8ec9ff",
            "#8ec9ff",
            "#8ec9ff",
            "#8ec9ff",
            "#8ec9ff",
            "#8ec9ff",
            "#8ec9ff",
            "#8ec9ff",
            "#8ec9ff",
            "#8ec9ff",
            "#8ec9ff",
            "#8ec9ff",
            "#8ec9ff",
            "#8ec9ff",
            "#8ec9ff",
            "#8ec9ff",
            "#8ec9ff",
            "#8ec9ff",
            "#8ec9ff",
            "#8ec9ff",
            "#8ec9ff",
            "#8ec9ff",
            "#8ec9ff",
            "#8ec9ff",
            "#8ec9ff",
            "#8ec9ff",
            "#8ec9ff",
            "#8ec9ff",
            "#8ec9ff",
            "#8ec9ff",
            "#8ec9ff",
            "#8ec9ff",
            "#8ec9ff",
            "#8ec9ff",
            "#8ec9ff",
            "#8ec9ff",
            "#8ec9ff",
            "#8ec9ff",
            "#8ec9ff",
            "#8ec9ff",
            "#8ec9ff",
            "#8ec9ff",
            "#8ec9ff",
            "#8ec9ff",
            "#8ec9ff",
            "#8ec9ff",
            "#8ec9ff",
            "#8ec9ff",
            "#8ec9ff",
            "#8ec9ff",
            "#8ec9ff",
            "#8ec9ff",
            "#8ec9ff",
            "#8ec9ff",
            "#8ec9ff",
            "#8ec9ff",
            "#8ec9ff",
            "#8ec9ff",
            "#8ec9ff",
            "#8ec9ff",
            "#8ec9ff",
            "#8ec9ff",
            "#8ec9ff",
            "#8ec9ff",
            "#8ec9ff",
            "#8ec9ff",
            "#8ec9ff",
            "#8ec9ff",
            "#8ec9ff",
            "#8ec9ff",
            "#8ec9ff",
            "#8ec9ff",
            "#8ec9ff",
            "#8ec9ff",
            "#8ec9ff",
            "#8ec9ff",
            "#8ec9ff",
            "#8ec9ff",
            "#8ec9ff",
            "#a9677c",
            "#a9677c",
            "#a9677c",
            "#a9677c",
            "#a9677c",
            "#a9677c",
            "#a9677c",
            "#a9677c",
            "#a9677c",
            "#a9677c",
            "#a9677c",
            "#a9677c",
            "#a9677c",
            "#a9677c",
            "#a9677c",
            "#a9677c",
            "#a9677c",
            "#a9677c",
            "#a9677c",
            "#a9677c",
            "#a9677c",
            "#a9677c",
            "#a9677c",
            "#a9677c",
            "#a9677c",
            "#a9677c",
            "#a9677c",
            "#a9677c",
            "#a9677c",
            "#a9677c",
            "#a9677c",
            "#a9677c",
            "#a9677c",
            "#a9677c",
            "#a9677c",
            "#a9677c",
            "#a9677c",
            "#a9677c",
            "#a9677c",
            "#a9677c",
            "#a9677c",
            "#a9677c",
            "#a9677c",
            "#a9677c",
            "#a9677c",
            "#a9677c",
            "#a9677c",
            "#a9677c",
            "#a9677c",
            "#a9677c",
            "#a9677c",
            "#a9677c",
            "#a9677c",
            "#a9677c",
            "#a9677c",
            "#a9677c",
            "#a9677c",
            "#a9677c",
            "#a9677c",
            "#a9677c",
            "#a9677c",
            "#a9677c",
            "#a9677c",
            "#a9677c",
            "#a9677c",
            "#a9677c",
            "#a9677c",
            "#a9677c",
            "#a9677c",
            "#a9677c",
            "#a9677c",
            "#a9677c",
            "#a9677c",
            "#a9677c",
            "#a9677c",
            "#a9677c",
            "#a9677c",
            "#a9677c",
            "#a9677c",
            "#a9677c",
            "#a9677c",
            "#a9677c",
            "#a9677c",
            "#a9677c",
            "#a9677c",
            "#a9677c",
            "#a9677c",
            "#a9677c",
            "#a9677c",
            "#a9677c",
            "#a9677c",
            "#a9677c",
            "#a9677c",
            "#a9677c",
            "#a9677c",
            "#a9677c",
            "#a9677c",
            "#a9677c",
            "#a9677c",
            "#a9677c",
            "#a9677c",
            "#a9677c",
            "#a9677c",
            "#a9677c",
            "#a9677c",
            "#a9677c",
            "#a9677c",
            "#a9677c",
            "#a9677c",
            "#a9677c",
            "#a9677c",
            "#a9677c",
            "#a9677c",
            "#a9677c",
            "#a9677c",
            "#a9677c",
            "#a9677c",
            "#a9677c",
            "#a9677c",
            "#a9677c",
            "#a9677c",
            "#a9677c",
            "#a9677c",
            "#a9677c",
            "#a9677c",
            "#a9677c",
            "#a9677c",
            "#a9677c",
            "#a9677c",
            "#a9677c",
            "#a9677c",
            "#a9677c",
            "#a9677c",
            "#a9677c",
            "#a9677c",
            "#a9677c",
            "#a9677c",
            "#a9677c",
            "#a9677c",
            "#a9677c",
            "#a9677c",
            "#a9677c",
            "#a9677c",
            "#a9677c",
            "#a9677c",
            "#a9677c",
            "#a9677c",
            "#a9677c",
            "#a9677c",
            "#a9677c",
            "#a9677c",
            "#a9677c",
            "#a9677c",
            "#a9677c",
            "#a9677c",
            "#a9677c",
            "#a9677c",
            "#a9677c",
            "#a9677c",
            "#a9677c",
            "#a9677c",
            "#a9677c",
            "#a9677c",
            "#a9677c",
            "#a9677c",
            "#a9677c",
            "#a9677c",
            "#a9677c",
            "#a9677c",
            "#a9677c",
            "#a9677c",
            "#a9677c",
            "#a9677c",
            "#a9677c",
            "#a9677c",
            "#a9677c",
            "#a9677c",
            "#a9677c",
            "#a9677c",
            "#a9677c",
            "#a9677c",
            "#a9677c",
            "#a9677c",
            "#a9677c",
            "#a9677c",
            "#a9677c",
            "#a9677c",
            "#a9677c",
            "#a9677c",
            "#a9677c",
            "#a9677c",
            "#a9677c",
            "#a9677c",
            "#a9677c",
            "#a9677c",
            "#a9677c",
            "#a9677c",
            "#a9677c",
            "#a9677c",
            "#a9677c",
            "#a9677c",
            "#a9677c",
            "#a9677c",
            "#a9677c",
            "#a9677c",
            "#a9677c",
            "#a9677c",
            "#a9677c",
            "#a9677c",
            "#a9677c",
            "#a9677c",
            "#a9677c",
            "#a9677c",
            "#a9677c",
            "#a9677c",
            "#a9677c",
            "#a9677c",
            "#a9677c",
            "#a9677c",
            "#a9677c",
            "#a9677c",
            "#a9677c",
            "#a9677c",
            "#a9677c",
            "#a9677c",
            "#a9677c",
            "#a9677c",
            "#a9677c",
            "#a9677c",
            "#a9677c",
            "#a9677c",
            "#a9677c",
            "#a9677c",
            "#a9677c",
            "#a9677c",
            "#a9677c",
            "#a9677c",
            "#a9677c",
            "#a9677c",
            "#a9677c",
            "#a9677c",
            "#a9677c",
            "#a9677c",
            "#a9677c",
            "#a9677c",
            "#a9677c",
            "#a9677c",
            "#a9677c",
            "#a9677c",
            "#a9677c",
            "#a9677c",
            "#a9677c",
            "#a9677c",
            "#a9677c",
            "#a9677c",
            "#a9677c",
            "#a9677c",
            "#a9677c",
            "#a9677c",
            "#a9677c",
            "#a9677c",
            "#a9677c",
            "#a9677c",
            "#a9677c",
            "#a9677c",
            "#a9677c",
            "#a9677c",
            "#8ec9ff",
            "#8ec9ff",
            "#8ec9ff",
            "#a9677c",
            "#a9677c",
            "#a9677c",
            "#a9677c",
            "#a9677c",
            "#a9677c",
            "#a9677c",
            "#a9677c",
            "#a9677c",
            "#a9677c",
            "#a9677c",
            "#a9677c",
            "#a9677c",
            "#a9677c",
            "#a9677c",
            "#a9677c",
            "#a9677c",
            "#a9677c",
            "#a9677c",
            "#a9677c",
            "#a9677c",
            "#a9677c",
            "#a9677c",
            "#a9677c",
            "#a9677c",
            "#a9677c",
            "#a9677c",
            "#a9677c",
            "#a9677c",
            "#a9677c",
            "#a9677c",
            "#a9677c",
            "#a9677c",
            "#a9677c",
            "#a9677c",
            "#8ec9ff",
            "#8ec9ff",
            "#8ec9ff",
            "#8ec9ff",
            "#a9677c",
            "#a9677c",
            "#a9677c",
            "#33cc33",
            "#33cc33",
            "#33cc33",
            "#33cc33",
            "#33cc33",
            "#33cc33",
            "#33cc33",
            "#33cc33",
            "#a9677c",
            "#a9677c",
            "#a9677c",
            "#8ec9ff",
            "#8ec9ff",
            "#8ec9ff",
            "#8ec9ff",
            "#8ec9ff",
            "#8ec9ff",
            "#a9677c",
            "#9000ff",
            "#b7468b",
            "#b7468b",
            "#c3f2ff",
            "#c3f2ff",
            "#b7468b",
            "#b7468b",
            "#b7468b",
            "#b7468b",
            "#c3f2ff",
            "#ab0034",
            "#7f8bfd",
            "#ff7f00",
            "#bb75fc",
            "#33cc33",
            "#a9677c",
            "#8ec9ff",
            "#ff0000",
            "#9000ff",
            "#ffff00",
            "#b7468b",
            "#c3f2ff",
            "#c3f2ff",
            "#c3f2ff",
            "#c3f2ff",
            "#c3f2ff",
            "#c3f2ff",
            "#c3f2ff",
            "#c3f2ff",
            "#c3f2ff",
            "#c3f2ff",
            "#c3f2ff",
            "#b7468b",
            "#c3f2ff",
            "#c3f2ff",
            "#c3f2ff",
            "#c3f2ff",
            "#c3f2ff",
            "#c3f2ff",
            "#c3f2ff",
            "#c3f2ff",
            "#c3f2ff",
            "#c3f2ff",
            "#c3f2ff",
            "#c3f2ff",
            "#c3f2ff",
            "#c3f2ff",
            "#c3f2ff",
            "#c3f2ff",
            "#c3f2ff",
            "#c3f2ff",
            "#c3f2ff",
            "#c3f2ff",
            "#c3f2ff",
            "#c3f2ff",
            "#b7468b",
            "#c3f2ff",
            "#c3f2ff",
            "#c3f2ff"
        ],
        "lead_colors": [
            "#000000",
            "#000000",
            "#000000",
            "#000000",
            "#000000",
            "#000000",
            "#000000",
            "#000000",
            "#000000",
            "#000000",
            "#000000",
            "#000000",
            "#000000",
            "#000000",
            "#000000",
            "#000000",
            "#000000",
            "#000000",
            "#000000",
            "#000000",
            "#000000",
            "#000000",
            "#000000",
            "#000000",
            "#000000",
            "#000000",
            "#000000",
            "#000000",
            "#000000",
            "#000000",
            "#000000",
            "#000000",
            "#000000",
            "#000000",
            "#000000",
            "#000000",
            "#000000",
            "#000000",
            "#000000",
            "#000000",
            "#000000",
            "#000000",
            "#9000ff",
            "#b7468b",
            "#ab0034",
            "#ff7f00",
            "#33cc33",
            "#8ec9ff",
            "#9000ff",
            "#c3f2ff",
            "#7f8bfd",
            "#ff7f00",
            "#ff7f00",
            "#ff7f00",
            "#ff7f00",
            "#ff7f00",
            "#ff7f00",
            "#ff7f00",
            "#ff7f00",
            "#ff7f00",
            "#ff7f00",
            "#ff7f00",
            "#ff7f00",
            "#ff7f00",
            "#ff7f00",
            "#ff7f00",
            "#ff7f00",
            "#ff7f00",
            "#ff7f00",
            "#ff7f00",
            "#ff7f00",
            "#ff7f00",
            "#ff7f00",
            "#ff7f00",
            "#ff7f00",
            "#ff7f00",
            "#ff7f00",
            "#ff7f00",
            "#ff7f00",
            "#ff7f00",
            "#ff7f00",
            "#ff7f00",
            "#ff7f00",
            "#ff7f00",
            "#ff7f00",
            "#ff7f00",
            "#ff7f00",
            "#ff7f00",
            "#ff7f00",
            "#ff7f00",
            "#ff7f00",
            "#ff7f00",
            "#ff7f00",
            "#ff7f00",
            "#ff7f00",
            "#ff7f00",
            "#ff7f00",
            "#ff7f00",
            "#ff7f00",
            "#ff7f00",
            "#ff7f00",
            "#ff7f00",
            "#ff7f00",
            "#ff7f00",
            "#ff7f00",
            "#bb75fc",
            "#bb75fc",
            "#ff7f00",
            "#ff7f00",
            "#ff7f00",
            "#ff7f00",
            "#ff7f00",
            "#7f8bfd",
            "#7f8bfd",
            "#7f8bfd",
            "#7f8bfd",
            "#ff7f00",
            "#ff7f00",
            "#ff7f00",
            "#ff7f00",
            "#bb75fc",
            "#bb75fc",
            "#bb75fc",
            "#bb75fc",
            "#ff7f00",
            "#ff7f00",
            "#ff7f00",
            "#ff7f00",
            "#ff7f00",
            "#ff7f00",
            "#ff7f00",
            "#ff7f00",
            "#ff7f00",
            "#ff7f00",
            "#ff7f00",
            "#ff7f00",
            "#ff7f00",
            "#ff7f00",
            "#ff7f00",
            "#ff7f00",
            "#ff7f00",
            "#ff7f00",
            "#ff7f00",
            "#ff7f00",
            "#7f8bfd",
            "#ab0034",
            "#b7468b",
            "#b7468b",
            "#b7468b",
            "#b7468b",
            "#ffff00",
            "#b7468b",
            "#b7468b",
            "#b7468b",
            "#c3f2ff",
            "#c3f2ff",
            "#ab0034",
            "#ab0034",
            "#7f8bfd",
            "#ff7f00",
            "#ff7f00",
            "#bb75fc",
            "#bb75fc",
            "#bb75fc",
            "#bb75fc",
            "#bb75fc",
            "#bb75fc",
            "#bb75fc",
            "#bb75fc",
            "#bb75fc",
            "#bb75fc",
            "#ff7f00",
            "#ff7f00",
            "#bb75fc",
            "#bb75fc",
            "#bb75fc",
            "#bb75fc",
            "#bb75fc",
            "#bb75fc",
            "#bb75fc",
            "#bb75fc",
            "#bb75fc",
            "#bb75fc",
            "#bb75fc",
            "#bb75fc",
            "#bb75fc",
            "#bb75fc",
            "#bb75fc",
            "#33cc33",
            "#a9677c",
            "#a9677c",
            "#a9677c",
            "#a9677c",
            "#a9677c",
            "#a9677c",
            "#a9677c",
            "#a9677c",
            "#a9677c",
            "#a9677c",
            "#a9677c",
            "#a9677c",
            "#a9677c",
            "#a9677c",
            "#a9677c",
            "#a9677c",
            "#a9677c",
            "#a9677c",
            "#a9677c",
            "#a9677c",
            "#a9677c",
            "#a9677c",
            "#a9677c",
            "#a9677c",
            "#a9677c",
            "#a9677c",
            "#a9677c",
            "#a9677c",
            "#a9677c",
            "#a9677c",
            "#a9677c",
            "#a9677c",
            "#a9677c",
            "#a9677c",
            "#a9677c",
            "#a9677c",
            "#a9677c",
            "#a9677c",
            "#33cc33",
            "#33cc33",
            "#33cc33",
            "#a9677c",
            "#a9677c",
            "#a9677c",
            "#8ec9ff",
            "#8ec9ff",
            "#8ec9ff",
            "#8ec9ff",
            "#ff0000",
            "#ff0000",
            "#ff0000",
            "#ff0000",
            "#ff0000",
            "#ff0000",
            "#ff0000",
            "#ff0000",
            "#ff0000",
            "#ff0000",
            "#ff0000",
            "#ff0000",
            "#ff0000",
            "#ff0000",
            "#ff0000",
            "#ff0000",
            "#ff0000",
            "#ff0000",
            "#ff0000",
            "#ff0000",
            "#ff0000",
            "#ff0000",
            "#ff0000",
            "#ff0000",
            "#ff0000",
            "#ff0000",
            "#ff0000",
            "#ff0000",
            "#ff0000",
            "#ff0000",
            "#ff0000",
            "#ff0000",
            "#ff0000",
            "#ff0000",
            "#ff0000",
            "#ff0000",
            "#ff0000",
            "#ff0000",
            "#ff0000",
            "#ff0000",
            "#9000ff",
            "#9000ff",
            "#9000ff",
            "#ff0000",
            "#ff0000",
            "#ff0000",
            "#8ec9ff",
            "#8ec9ff",
            "#8ec9ff",
            "#ff0000",
            "#ff0000",
            "#ff0000",
            "#ff0000",
            "#9000ff",
            "#9000ff",
            "#ffff00",
            "#ffff00",
            "#ffff00",
            "#ffff00",
            "#ffff00",
            "#ffff00",
            "#ffff00",
            "#ffff00",
            "#ffff00",
            "#ffff00",
            "#ffff00",
            "#ffff00",
            "#ffff00",
            "#ffff00",
            "#ffff00",
            "#ffff00",
            "#ffff00",
            "#ffff00",
            "#ffff00",
            "#ffff00",
            "#ffff00",
            "#ffff00",
            "#ffff00",
            "#ffff00",
            "#ffff00",
            "#ffff00",
            "#ffff00",
            "#ffff00",
            "#ffff00",
            "#ffff00",
            "#ffff00",
            "#ffff00",
            "#ffff00",
            "#ffff00",
            "#ffff00",
            "#ffff00",
            "#ffff00",
            "#ffff00",
            "#ffff00",
            "#ffff00",
            "#ffff00",
            "#ffff00",
            "#ffff00",
            "#ffff00",
            "#ffff00",
            "#ffff00",
            "#ffff00",
            "#b7468b",
            "#b7468b",
            "#b7468b",
            "#b7468b",
            "#b7468b",
            "#b7468b",
            "#b7468b",
            "#b7468b",
            "#b7468b",
            "#b7468b",
            "#b7468b",
            "#b7468b",
            "#b7468b",
            "#b7468b",
            "#b7468b",
            "#b7468b",
            "#b7468b",
            "#b7468b",
            "#b7468b",
            "#b7468b",
            "#b7468b",
            "#b7468b",
            "#b7468b",
            "#b7468b",
            "#b7468b",
            "#b7468b",
            "#b7468b",
            "#b7468b",
            "#b7468b",
            "#b7468b",
            "#b7468b",
            "#b7468b",
            "#b7468b",
            "#b7468b",
            "#b7468b",
            "#b7468b",
            "#b7468b",
            "#b7468b",
            "#b7468b",
            "#b7468b",
            "#b7468b",
            "#b7468b",
            "#b7468b",
            "#b7468b",
            "#b7468b",
            "#b7468b",
            "#b7468b",
            "#b7468b",
            "#b7468b",
            "#b7468b",
            "#b7468b",
            "#b7468b",
            "#b7468b",
            "#b7468b",
            "#b7468b",
            "#b7468b",
            "#b7468b",
            "#b7468b",
            "#b7468b",
            "#b7468b",
            "#b7468b",
            "#b7468b",
            "#b7468b",
            "#b7468b",
            "#b7468b",
            "#b7468b",
            "#b7468b",
            "#c3f2ff",
            "#b7468b",
            "#b7468b",
            "#b7468b",
            "#b7468b",
            "#b7468b",
            "#b7468b",
            "#b7468b",
            "#b7468b",
            "#ffff00",
            "#ffff00",
            "#b7468b",
            "#b7468b",
            "#b7468b",
            "#b7468b",
            "#b7468b",
            "#b7468b",
            "#b7468b",
            "#c3f2ff",
            "#b7468b",
            "#b7468b",
            "#b7468b",
            "#b7468b",
            "#b7468b",
            "#b7468b",
            "#b7468b",
            "#b7468b",
            "#b7468b",
            "#b7468b",
            "#b7468b",
            "#b7468b",
            "#b7468b",
            "#b7468b",
            "#b7468b",
            "#b7468b",
            "#b7468b",
            "#b7468b",
            "#b7468b",
            "#b7468b",
            "#b7468b",
            "#b7468b",
            "#b7468b",
            "#b7468b",
            "#b7468b",
            "#b7468b",
            "#b7468b",
            "#b7468b",
            "#b7468b",
            "#b7468b",
            "#b7468b",
            "#b7468b",
            "#b7468b",
            "#b7468b",
            "#b7468b",
            "#b7468b",
            "#b7468b",
            "#b7468b",
            "#b7468b",
            "#b7468b",
            "#b7468b",
            "#b7468b",
            "#b7468b",
            "#b7468b",
            "#b7468b",
            "#b7468b",
            "#b7468b",
            "#b7468b",
            "#b7468b",
            "#b7468b",
            "#b7468b",
            "#b7468b",
            "#b7468b",
            "#b7468b",
            "#b7468b",
            "#b7468b",
            "#b7468b",
            "#b7468b",
            "#b7468b",
            "#b7468b",
            "#b7468b",
            "#b7468b",
            "#b7468b",
            "#b7468b",
            "#b7468b",
            "#b7468b",
            "#b7468b",
            "#b7468b",
            "#b7468b",
            "#b7468b",
            "#b7468b",
            "#b7468b",
            "#b7468b",
            "#b7468b",
            "#b7468b",
            "#b7468b",
            "#b7468b",
            "#b7468b",
            "#b7468b",
            "#b7468b",
            "#b7468b",
            "#b7468b",
            "#b7468b",
            "#b7468b",
            "#b7468b",
            "#b7468b",
            "#b7468b",
            "#b7468b",
            "#b7468b",
            "#b7468b",
            "#b7468b",
            "#b7468b",
            "#b7468b",
            "#b7468b",
            "#b7468b",
            "#b7468b",
            "#b7468b",
            "#b7468b",
            "#b7468b",
            "#b7468b",
            "#b7468b",
            "#b7468b",
            "#b7468b",
            "#b7468b",
            "#b7468b",
            "#b7468b",
            "#b7468b",
            "#b7468b",
            "#b7468b",
            "#b7468b",
            "#b7468b",
            "#b7468b",
            "#b7468b",
            "#b7468b",
            "#b7468b",
            "#b7468b",
            "#b7468b",
            "#b7468b",
            "#b7468b",
            "#b7468b",
            "#b7468b",
            "#b7468b",
            "#b7468b",
            "#b7468b",
            "#b7468b",
            "#b7468b",
            "#b7468b",
            "#b7468b",
            "#b7468b",
            "#b7468b",
            "#b7468b",
            "#b7468b",
            "#b7468b",
            "#b7468b",
            "#b7468b",
            "#b7468b",
            "#b7468b",
            "#b7468b",
            "#b7468b",
            "#b7468b",
            "#b7468b",
            "#b7468b",
            "#b7468b",
            "#b7468b",
            "#b7468b",
            "#b7468b",
            "#b7468b",
            "#b7468b",
            "#b7468b",
            "#b7468b",
            "#b7468b",
            "#b7468b",
            "#b7468b",
            "#b7468b",
            "#b7468b",
            "#b7468b",
            "#b7468b",
            "#b7468b",
            "#b7468b",
            "#b7468b",
            "#b7468b",
            "#b7468b",
            "#b7468b",
            "#b7468b",
            "#b7468b",
            "#b7468b",
            "#b7468b",
            "#b7468b",
            "#b7468b",
            "#9000ff",
            "#8ec9ff",
            "#a9677c",
            "#bb75fc",
            "#bb75fc",
            "#bb75fc",
            "#ff7f00",
            "#7f8bfd",
            "#7f8bfd",
            "#ff7f00",
            "#33cc33",
            "#a9677c",
            "#8ec9ff",
            "#8ec9ff",
            "#ff0000",
            "#ff0000",
            "#ff0000",
            "#9000ff",
            "#ffff00",
            "#ffff00",
            "#ffff00",
            "#b7468b",
            "#b7468b",
            "#b7468b",
            "#b7468b",
            "#b7468b",
            "#b7468b",
            "#b7468b",
            "#b7468b",
            "#b7468b",
            "#b7468b",
            "#b7468b",
            "#b7468b",
            "#b7468b",
            "#b7468b",
            "#b7468b",
            "#b7468b",
            "#b7468b",
            "#b7468b",
            "#b7468b",
            "#b7468b",
            "#b7468b",
            "#b7468b",
            "#b7468b",
            "#b7468b",
            "#b7468b",
            "#b7468b",
            "#b7468b",
            "#b7468b",
            "#b7468b",
            "#b7468b",
            "#b7468b",
            "#b7468b",
            "#b7468b",
            "#b7468b",
            "#b7468b",
            "#b7468b",
            "#b7468b",
            "#b7468b",
            "#b7468b",
            "#b7468b",
            "#b7468b",
            "#b7468b",
            "#b7468b",
            "#b7468b",
            "#b7468b",
            "#b7468b",
            "#b7468b",
            "#b7468b",
            "#b7468b",
            "#b7468b",
            "#b7468b",
            "#b7468b",
            "#b7468b",
            "#b7468b",
            "#b7468b",
            "#b7468b",
            "#b7468b",
            "#b7468b",
            "#b7468b",
            "#b7468b",
            "#b7468b",
            "#b7468b",
            "#b7468b",
            "#b7468b",
            "#b7468b",
            "#b7468b",
            "#b7468b",
            "#b7468b",
            "#b7468b",
            "#b7468b",
            "#b7468b",
            "#b7468b",
            "#b7468b",
            "#b7468b",
            "#b7468b",
            "#b7468b",
            "#b7468b",
            "#b7468b",
            "#b7468b",
            "#b7468b",
            "#b7468b",
            "#b7468b",
            "#b7468b",
            "#b7468b",
            "#b7468b",
            "#b7468b",
            "#b7468b",
            "#b7468b",
            "#b7468b",
            "#b7468b",
            "#b7468b",
            "#b7468b",
            "#b7468b",
            "#b7468b",
            "#b7468b",
            "#b7468b",
            "#b7468b",
            "#b7468b",
            "#b7468b",
            "#b7468b",
            "#b7468b",
            "#b7468b",
            "#b7468b",
            "#b7468b",
            "#b7468b",
            "#b7468b",
            "#b7468b",
            "#b7468b",
            "#b7468b",
            "#b7468b",
            "#b7468b",
            "#b7468b",
            "#b7468b",
            "#b7468b",
            "#b7468b",
            "#b7468b",
            "#b7468b",
            "#b7468b",
            "#b7468b",
            "#b7468b",
            "#b7468b",
            "#b7468b",
            "#b7468b",
            "#b7468b",
            "#b7468b",
            "#b7468b",
            "#b7468b",
            "#b7468b",
            "#b7468b",
            "#b7468b",
            "#b7468b",
            "#b7468b",
            "#b7468b",
            "#b7468b",
            "#b7468b",
            "#b7468b",
            "#b7468b",
            "#b7468b",
            "#b7468b",
            "#b7468b",
            "#b7468b",
            "#b7468b",
            "#b7468b",
            "#b7468b",
            "#b7468b",
            "#b7468b",
            "#b7468b",
            "#b7468b",
            "#b7468b",
            "#b7468b",
            "#b7468b",
            "#b7468b",
            "#b7468b",
            "#b7468b",
            "#b7468b",
            "#b7468b",
            "#b7468b",
            "#b7468b",
            "#b7468b",
            "#b7468b",
            "#b7468b",
            "#b7468b",
            "#b7468b",
            "#b7468b",
            "#b7468b",
            "#b7468b",
            "#b7468b",
            "#b7468b",
            "#b7468b",
            "#b7468b",
            "#b7468b",
            "#b7468b",
            "#b7468b",
            "#b7468b",
            "#b7468b",
            "#b7468b",
            "#b7468b",
            "#b7468b",
            "#b7468b",
            "#b7468b",
            "#b7468b",
            "#b7468b",
            "#b7468b",
            "#b7468b",
            "#b7468b",
            "#b7468b",
            "#b7468b",
            "#b7468b",
            "#b7468b",
            "#b7468b",
            "#b7468b",
            "#b7468b",
            "#b7468b",
            "#b7468b",
            "#b7468b",
            "#b7468b",
            "#b7468b",
            "#b7468b",
            "#b7468b",
            "#b7468b",
            "#b7468b",
            "#b7468b",
            "#b7468b",
            "#b7468b",
            "#b7468b",
            "#b7468b",
            "#b7468b",
            "#b7468b",
            "#b7468b",
            "#b7468b",
            "#b7468b",
            "#b7468b",
            "#b7468b",
            "#b7468b",
            "#b7468b",
            "#b7468b",
            "#b7468b",
            "#b7468b",
            "#b7468b",
            "#b7468b",
            "#b7468b",
            "#b7468b",
            "#b7468b",
            "#b7468b",
            "#b7468b",
            "#b7468b",
            "#b7468b",
            "#b7468b",
            "#b7468b",
            "#b7468b",
            "#b7468b",
            "#b7468b",
            "#b7468b",
            "#b7468b",
            "#b7468b",
            "#b7468b",
            "#b7468b",
            "#b7468b",
            "#b7468b",
            "#b7468b",
            "#b7468b",
            "#b7468b",
            "#b7468b",
            "#b7468b",
            "#b7468b",
            "#b7468b",
            "#b7468b",
            "#b7468b",
            "#b7468b",
            "#b7468b",
            "#b7468b",
            "#b7468b",
            "#b7468b",
            "#b7468b",
            "#b7468b",
            "#b7468b",
            "#b7468b",
            "#b7468b",
            "#b7468b",
            "#b7468b",
            "#b7468b",
            "#b7468b",
            "#b7468b",
            "#b7468b",
            "#b7468b",
            "#b7468b",
            "#b7468b",
            "#b7468b",
            "#b7468b",
            "#b7468b",
            "#b7468b",
            "#b7468b",
            "#b7468b",
            "#b7468b",
            "#b7468b",
            "#b7468b",
            "#b7468b",
            "#b7468b",
            "#b7468b",
            "#b7468b",
            "#b7468b",
            "#b7468b",
            "#b7468b",
            "#b7468b",
            "#b7468b",
            "#b7468b",
            "#b7468b",
            "#b7468b",
            "#b7468b",
            "#b7468b",
            "#b7468b",
            "#b7468b",
            "#b7468b",
            "#b7468b",
            "#b7468b",
            "#b7468b",
            "#b7468b",
            "#b7468b",
            "#b7468b",
            "#b7468b",
            "#b7468b",
            "#b7468b",
            "#b7468b",
            "#b7468b",
            "#b7468b",
            "#b7468b",
            "#b7468b",
            "#b7468b",
            "#b7468b",
            "#b7468b",
            "#b7468b",
            "#b7468b",
            "#c3f2ff",
            "#c3f2ff",
            "#b7468b",
            "#b7468b",
            "#b7468b",
            "#b7468b",
            "#b7468b",
            "#b7468b",
            "#b7468b",
            "#b7468b",
            "#b7468b",
            "#b7468b",
            "#b7468b",
            "#b7468b",
            "#b7468b",
            "#b7468b",
            "#b7468b",
            "#b7468b",
            "#b7468b",
            "#b7468b",
            "#b7468b",
            "#c3f2ff",
            "#c3f2ff",
            "#ab0034",
            "#ff7f00",
            "#ff7f00",
            "#ff7f00",
            "#bb75fc",
            "#33cc33",
            "#a9677c",
            "#8ec9ff",
            "#ff0000",
            "#9000ff",
            "#9000ff",
            "#b7468b",
            "#b7468b",
            "#c3f2ff",
            "#c3f2ff",
            "#c3f2ff",
            "#c3f2ff",
            "#c3f2ff",
            "#c3f2ff",
            "#c3f2ff",
            "#c3f2ff",
            "#c3f2ff",
            "#c3f2ff",
            "#c3f2ff",
            "#b7468b",
            "#c3f2ff",
            "#c3f2ff",
            "#c3f2ff",
            "#c3f2ff",
            "#c3f2ff",
            "#c3f2ff",
            "#c3f2ff",
            "#c3f2ff",
            "#c3f2ff",
            "#c3f2ff",
            "#c3f2ff",
            "#c3f2ff",
            "#c3f2ff",
            "#c3f2ff",
            "#c3f2ff",
            "#c3f2ff",
            "#c3f2ff",
            "#c3f2ff",
            "#c3f2ff",
            "#c3f2ff",
            "#c3f2ff",
            "#c3f2ff",
            "#b7468b",
            "#c3f2ff",
            "#c3f2ff",
            "#c3f2ff"
        ],
        "tenor_colors": [
            "#000000",
            "#000000",
            "#000000",
            "#000000",
            "#000000",
            "#000000",
            "#000000",
            "#000000",
            "#000000",
            "#000000",
            "#000000",
            "#000000",
            "#000000",
            "#000000",
            "#000000",
            "#000000",
            "#000000",
            "#000000",
            "#000000",
            "#000000",
            "#000000",
            "#000000",
            "#000000",
            "#000000",
            "#000000",
            "#000000",
            "#000000",
            "#000000",
            "#000000",
            "#000000",
            "#000000",
            "#000000",
            "#000000",
            "#000000",
            "#000000",
            "#000000",
            "#000000",
            "#000000",
            "#000000",
            "#000000",
            "#000000",
            "#000000",
            "#000000",
            "#000000",
            "#000000",
            "#9000ff",
            "#b7468b",
            "#ab0034",
            "#ff7f00",
            "#33cc33",
            "#8ec9ff",
            "#9000ff",
            "#b7468b",
            "#ab0034",
            "#ff7f00",
            "#ff7f00",
            "#ff7f00",
            "#ff7f00",
            "#ff7f00",
            "#ff7f00",
            "#ff7f00",
            "#ff7f00",
            "#ff7f00",
            "#ff7f00",
            "#ff7f00",
            "#ff7f00",
            "#ff7f00",
            "#ff7f00",
            "#ff7f00",
            "#ff7f00",
            "#ff7f00",
            "#ff7f00",
            "#ff7f00",
            "#ff7f00",
            "#ff7f00",
            "#ff7f00",
            "#ff7f00",
            "#ff7f00",
            "#ff7f00",
            "#ff7f00",
            "#ff7f00",
            "#ff7f00",
            "#ff7f00",
            "#ff7f00",
            "#ff7f00",
            "#ff7f00",
            "#ff7f00",
            "#ff7f00",
            "#ff7f00",
            "#ff7f00",
            "#ff7f00",
            "#ff7f00",
            "#ff7f00",
            "#ff7f00",
            "#ff7f00",
            "#ff7f00",
            "#ff7f00",
            "#ff7f00",
            "#ff7f00",
            "#ff7f00",
            "#ff7f00",
            "#ff7f00",
            "#ff7f00",
            "#ff7f00",
            "#ff7f00",
            "#ff7f00",
            "#ff7f00",
            "#ff7f00",
            "#ff7f00",
            "#ff7f00",
            "#ff7f00",
            "#ff7f00",
            "#ff7f00",
            "#ff7f00",
            "#ff7f00",
            "#bb75fc",
            "#ff7f00",
            "#bb75fc",
            "#ff7f00",
            "#ff7f00",
            "#ff7f00",
            "#ff7f00",
            "#7f8bfd",
            "#7f8bfd",
            "#7f8bfd",
            "#7f8bfd",
            "#7f8bfd",
            "#ff7f00",
            "#ff7f00",
            "#ff7f00",
            "#ff7f00",
            "#ff7f00",
            "#ff7f00",
            "#ff7f00",
            "#ff7f00",
            "#ff7f00",
            "#ff7f00",
            "#7f8bfd",
            "#ff7f00",
            "#ff7f00",
            "#ff7f00",
            "#ff7f00",
            "#ff7f00",
            "#ff7f00",
            "#ff7f00",
            "#ff7f00",
            "#7f8bfd",
            "#7f8bfd",
            "#7f8bfd",
            "#ff7f00",
            "#ff7f00",
            "#bb75fc",
            "#bb75fc",
            "#bb75fc",
            "#bb75fc",
            "#bb75fc",
            "#bb75fc",
            "#bb75fc",
            "#bb75fc",
            "#bb75fc",
            "#bb75fc",
            "#bb75fc",
            "#bb75fc",
            "#bb75fc",
            "#bb75fc",
            "#bb75fc",
            "#bb75fc",
            "#bb75fc",
            "#bb75fc",
            "#bb75fc",
            "#bb75fc",
            "#bb75fc",
            "#bb75fc",
            "#bb75fc",
            "#bb75fc",
            "#bb75fc",
            "#bb75fc",
            "#bb75fc",
            "#bb75fc",
            "#bb75fc",
            "#bb75fc",
            "#bb75fc",
            "#bb75fc",
            "#bb75fc",
            "#bb75fc",
            "#bb75fc",
            "#bb75fc",
            "#33cc33",
            "#a9677c",
            "#a9677c",
            "#a9677c",
            "#a9677c",
            "#a9677c",
            "#a9677c",
            "#a9677c",
            "#a9677c",
            "#a9677c",
            "#a9677c",
            "#a9677c",
            "#a9677c",
            "#a9677c",
            "#a9677c",
            "#a9677c",
            "#a9677c",
            "#a9677c",
            "#a9677c",
            "#a9677c",
            "#a9677c",
            "#a9677c",
            "#a9677c",
            "#a9677c",
            "#a9677c",
            "#a9677c",
            "#a9677c",
            "#a9677c",
            "#a9677c",
            "#a9677c",
            "#a9677c",
            "#a9677c",
            "#a9677c",
            "#a9677c",
            "#a9677c",
            "#a9677c",
            "#a9677c",
            "#a9677c",
            "#a9677c",
            "#a9677c",
            "#33cc33",
            "#33cc33",
            "#33cc33",
            "#33cc33",
            "#33cc33",
            "#33cc33",
            "#33cc33",
            "#a9677c",
            "#a9677c",
            "#8ec9ff",
            "#ff0000",
            "#ff0000",
            "#ff0000",
            "#ff0000",
            "#ff0000",
            "#ff0000",
            "#ff0000",
            "#ff0000",
            "#ff0000",
            "#ff0000",
            "#ff0000",
            "#ff0000",
            "#ff0000",
            "#ff0000",
            "#ff0000",
            "#ff0000",
            "#ff0000",
            "#ff0000",
            "#ff0000",
            "#ff0000",
            "#ff0000",
            "#ff0000",
            "#ff0000",
            "#ff0000",
            "#ff0000",
            "#ff0000",
            "#ff0000",
            "#ff0000",
            "#ff0000",
            "#ff0000",
            "#ff0000",
            "#ff0000",
            "#ff0000",
            "#ff0000",
            "#ff0000",
            "#ff0000",
            "#ff0000",
            "#ff0000",
            "#ff0000",
            "#ff0000",
            "#ff0000",
            "#ff0000",
            "#ff0000",
            "#ff0000",
            "#ff0000",
            "#8ec9ff",
            "#ff0000",
            "#ff0000",
            "#ff0000",
            "#ff0000",
            "#ff0000",
            "#9000ff",
            "#ffff00",
            "#ffff00",
            "#ffff00",
            "#ffff00",
            "#ffff00",
            "#ffff00",
            "#ffff00",
            "#ffff00",
            "#ffff00",
            "#ffff00",
            "#ffff00",
            "#ffff00",
            "#ffff00",
            "#ffff00",
            "#ffff00",
            "#ffff00",
            "#ffff00",
            "#ffff00",
            "#ffff00",
            "#ffff00",
            "#ffff00",
            "#ffff00",
            "#ffff00",
            "#ffff00",
            "#ff0000",
            "#a9677c",
            "#a9677c",
            "#a9677c",
            "#ff0000",
            "#ffff00",
            "#ffff00",
            "#ffff00",
            "#ffff00",
            "#ffff00",
            "#ffff00",
            "#ffff00",
            "#ffff00",
            "#ffff00",
            "#ffff00",
            "#ffff00",
            "#ffff00",
            "#ffff00",
            "#ffff00",
            "#ffff00",
            "#ffff00",
            "#ffff00",
            "#ffff00",
            "#ffff00",
            "#ffff00",
            "#ffff00",
            "#b7468b",
            "#b7468b",
            "#b7468b",
            "#b7468b",
            "#b7468b",
            "#b7468b",
            "#b7468b",
            "#b7468b",
            "#b7468b",
            "#b7468b",
            "#b7468b",
            "#b7468b",
            "#b7468b",
            "#b7468b",
            "#b7468b",
            "#b7468b",
            "#b7468b",
            "#b7468b",
            "#b7468b",
            "#b7468b",
            "#b7468b",
            "#b7468b",
            "#b7468b",
            "#b7468b",
            "#b7468b",
            "#b7468b",
            "#b7468b",
            "#b7468b",
            "#b7468b",
            "#b7468b",
            "#b7468b",
            "#b7468b",
            "#b7468b",
            "#b7468b",
            "#b7468b",
            "#b7468b",
            "#b7468b",
            "#b7468b",
            "#b7468b",
            "#b7468b",
            "#b7468b",
            "#b7468b",
            "#b7468b",
            "#b7468b",
            "#b7468b",
            "#b7468b",
            "#b7468b",
            "#b7468b",
            "#b7468b",
            "#b7468b",
            "#b7468b",
            "#b7468b",
            "#b7468b",
            "#b7468b",
            "#b7468b",
            "#b7468b",
            "#b7468b",
            "#b7468b",
            "#b7468b",
            "#b7468b",
            "#b7468b",
            "#b7468b",
            "#b7468b",
            "#b7468b",
            "#b7468b",
            "#b7468b",
            "#b7468b",
            "#b7468b",
            "#b7468b",
            "#b7468b",
            "#b7468b",
            "#b7468b",
            "#b7468b",
            "#b7468b",
            "#b7468b",
            "#b7468b",
            "#b7468b",
            "#b7468b",
            "#b7468b",
            "#b7468b",
            "#b7468b",
            "#b7468b",
            "#b7468b",
            "#b7468b",
            "#b7468b",
            "#b7468b",
            "#b7468b",
            "#b7468b",
            "#b7468b",
            "#b7468b",
            "#b7468b",
            "#b7468b",
            "#b7468b",
            "#b7468b",
            "#b7468b",
            "#b7468b",
            "#b7468b",
            "#b7468b",
            "#b7468b",
            "#b7468b",
            "#b7468b",
            "#b7468b",
            "#b7468b",
            "#b7468b",
            "#b7468b",
            "#b7468b",
            "#b7468b",
            "#b7468b",
            "#b7468b",
            "#b7468b",
            "#b7468b",
            "#b7468b",
            "#b7468b",
            "#b7468b",
            "#b7468b",
            "#b7468b",
            "#b7468b",
            "#b7468b",
            "#b7468b",
            "#b7468b",
            "#b7468b",
            "#c3f2ff",
            "#c3f2ff",
            "#c3f2ff",
            "#ab0034",
            "#ab0034",
            "#ab0034",
            "#ab0034",
            "#ab0034",
            "#ab0034",
            "#ab0034",
            "#ab0034",
            "#ab0034",
            "#ab0034",
            "#ab0034",
            "#ab0034",
            "#ab0034",
            "#ab0034",
            "#ab0034",
            "#ab0034",
            "#ab0034",
            "#ab0034",
            "#ab0034",
            "#ab0034",
            "#ab0034",
            "#ab0034",
            "#ab0034",
            "#ab0034",
            "#ab0034",
            "#ab0034",
            "#ab0034",
            "#ab0034",
            "#ab0034",
            "#ab0034",
            "#ab0034",
            "#ab0034",
            "#ab0034",
            "#ab0034",
            "#ab0034",
            "#ab0034",
            "#ab0034",
            "#ab0034",
            "#ab0034",
            "#ab0034",
            "#ab0034",
            "#ab0034",
            "#ab0034",
            "#ab0034",
            "#ab0034",
            "#ab0034",
            "#ab0034",
            "#ab0034",
            "#ab0034",
            "#ab0034",
            "#ab0034",
            "#ab0034",
            "#ab0034",
            "#ab0034",
            "#ab0034",
            "#ab0034",
            "#ab0034",
            "#ab0034",
            "#ab0034",
            "#ab0034",
            "#ab0034",
            "#ab0034",
            "#ab0034",
            "#ab0034",
            "#ab0034",
            "#ab0034",
            "#ab0034",
            "#ab0034",
            "#ab0034",
            "#ab0034",
            "#ab0034",
            "#ab0034",
            "#ab0034",
            "#ab0034",
            "#ab0034",
            "#ab0034",
            "#ab0034",
            "#ab0034",
            "#ab0034",
            "#ab0034",
            "#ab0034",
            "#ab0034",
            "#ab0034",
            "#ab0034",
            "#ab0034",
            "#ab0034",
            "#ab0034",
            "#ab0034",
            "#ab0034",
            "#ab0034",
            "#ab0034",
            "#ab0034",
            "#ab0034",
            "#ab0034",
            "#ab0034",
            "#ab0034",
            "#ab0034",
            "#ab0034",
            "#ab0034",
            "#ab0034",
            "#ab0034",
            "#ab0034",
            "#ab0034",
            "#ab0034",
            "#ab0034",
            "#ab0034",
            "#ab0034",
            "#ab0034",
            "#ab0034",
            "#ab0034",
            "#ab0034",
            "#ab0034",
            "#ab0034",
            "#ab0034",
            "#ab0034",
            "#ab0034",
            "#ab0034",
            "#ab0034",
            "#ab0034",
            "#ab0034",
            "#ab0034",
            "#ab0034",
            "#ab0034",
            "#ab0034",
            "#ab0034",
            "#ab0034",
            "#ab0034",
            "#ab0034",
            "#ab0034",
            "#b7468b",
            "#b7468b",
            "#b7468b",
            "#b7468b",
            "#b7468b",
            "#c3f2ff",
            "#ab0034",
            "#ab0034",
            "#b7468b",
            "#b7468b",
            "#b7468b",
            "#b7468b",
            "#b7468b",
            "#c3f2ff",
            "#ab0034",
            "#7f8bfd",
            "#7f8bfd",
            "#7f8bfd",
            "#7f8bfd",
            "#ff7f00",
            "#ff7f00",
            "#ff7f00",
            "#ff7f00",
            "#ff7f00",
            "#ff7f00",
            "#ff7f00",
            "#ff7f00",
            "#ff7f00",
            "#ff7f00",
            "#ff7f00",
            "#ff7f00",
            "#ff7f00",
            "#ff7f00",
            "#ff7f00",
            "#ff7f00",
            "#ff7f00",
            "#ff7f00",
            "#ff7f00",
            "#ff7f00",
            "#ff7f00",
            "#ff7f00",
            "#ff7f00",
            "#ff7f00",
            "#ff7f00",
            "#ff7f00",
            "#ff7f00",
            "#ff7f00",
            "#ff7f00",
            "#ff7f00",
            "#ff7f00",
            "#ff7f00",
            "#ff7f00",
            "#ff7f00",
            "#ff7f00",
            "#ff7f00",
            "#ff7f00",
            "#ff7f00",
            "#ff7f00",
            "#ff7f00",
            "#ff7f00",
            "#ff7f00",
            "#ff7f00",
            "#ff7f00",
            "#ff7f00",
            "#ff7f00",
            "#ff7f00",
            "#ff7f00",
            "#ff7f00",
            "#ff7f00",
            "#ff7f00",
            "#ff7f00",
            "#ff7f00",
            "#ff7f00",
            "#ff7f00",
            "#ff7f00",
            "#ff7f00",
            "#ff7f00",
            "#ff7f00",
            "#ff7f00",
            "#ff7f00",
            "#ff7f00",
            "#ff7f00",
            "#ff7f00",
            "#ff7f00",
            "#ff7f00",
            "#ff7f00",
            "#ff7f00",
            "#ff7f00",
            "#ff7f00",
            "#ff7f00",
            "#ff7f00",
            "#ff7f00",
            "#ff7f00",
            "#ff7f00",
            "#ff7f00",
            "#ff7f00",
            "#ff7f00",
            "#ff7f00",
            "#ff7f00",
            "#ff7f00",
            "#ff7f00",
            "#ff7f00",
            "#ff7f00",
            "#ff7f00",
            "#ff7f00",
            "#ff7f00",
            "#ff7f00",
            "#ff7f00",
            "#ff7f00",
            "#ff7f00",
            "#ff7f00",
            "#ff7f00",
            "#ff7f00",
            "#ff7f00",
            "#ff7f00",
            "#ff7f00",
            "#ff7f00",
            "#ff7f00",
            "#ff7f00",
            "#ff7f00",
            "#ff7f00",
            "#ff7f00",
            "#ff7f00",
            "#ff7f00",
            "#ff7f00",
            "#ff7f00",
            "#ff7f00",
            "#ff7f00",
            "#ff7f00",
            "#ff7f00",
            "#ff7f00",
            "#ff7f00",
            "#ff7f00",
            "#ff7f00",
            "#ff7f00",
            "#ff7f00",
            "#ff7f00",
            "#ff7f00",
            "#ff7f00",
            "#ff7f00",
            "#ff7f00",
            "#ff7f00",
            "#ff7f00",
            "#ff7f00",
            "#ff7f00",
            "#ff7f00",
            "#ff7f00",
            "#ff7f00",
            "#ff7f00",
            "#ff7f00",
            "#ff7f00",
            "#ff7f00",
            "#ff7f00",
            "#ff7f00",
            "#ff7f00",
            "#ff7f00",
            "#ff7f00",
            "#ff7f00",
            "#ff7f00",
            "#ff7f00",
            "#ff7f00",
            "#ff7f00",
            "#ff7f00",
            "#ff7f00",
            "#ff7f00",
            "#ff7f00",
            "#ff7f00",
            "#ff7f00",
            "#ff7f00",
            "#ff7f00",
            "#ff7f00",
            "#ff7f00",
            "#ff7f00",
            "#ff7f00",
            "#ff7f00",
            "#ff7f00",
            "#ff7f00",
            "#ff7f00",
            "#ff7f00",
            "#ff7f00",
            "#ff7f00",
            "#ff7f00",
            "#ff7f00",
            "#ff7f00",
            "#ff7f00",
            "#ff7f00",
            "#ff7f00",
            "#ff7f00",
            "#ff7f00",
            "#ff7f00",
            "#ff7f00",
            "#ff7f00",
            "#ff7f00",
            "#ff7f00",
            "#ff7f00",
            "#ff7f00",
            "#ff7f00",
            "#ff7f00",
            "#ff7f00",
            "#ff7f00",
            "#ff7f00",
            "#ff7f00",
            "#ff7f00",
            "#ff7f00",
            "#ff7f00",
            "#ff7f00",
            "#ff7f00",
            "#ff7f00",
            "#ff7f00",
            "#ff7f00",
            "#ff7f00",
            "#ff7f00",
            "#ff7f00",
            "#ff7f00",
            "#ff7f00",
            "#ff7f00",
            "#ff7f00",
            "#ff7f00",
            "#ff7f00",
            "#ff7f00",
            "#ff7f00",
            "#ff7f00",
            "#ff7f00",
            "#ff7f00",
            "#ff7f00",
            "#ff7f00",
            "#ff7f00",
            "#ff7f00",
            "#ff7f00",
            "#ff7f00",
            "#ff7f00",
            "#ff7f00",
            "#ff7f00",
            "#ff7f00",
            "#ff7f00",
            "#ff7f00",
            "#ff7f00",
            "#ff7f00",
            "#ff7f00",
            "#ff7f00",
            "#ff7f00",
            "#ff7f00",
            "#ff7f00",
            "#ff7f00",
            "#ff7f00",
            "#ff7f00",
            "#ff7f00",
            "#ff7f00",
            "#ff7f00",
            "#ff7f00",
            "#ff7f00",
            "#ff7f00",
            "#ff7f00",
            "#ff7f00",
            "#ff7f00",
            "#ff7f00",
            "#ff7f00",
            "#ff7f00",
            "#ff7f00",
            "#ff7f00",
            "#ff7f00",
            "#ff7f00",
            "#ff7f00",
            "#ff7f00",
            "#ff7f00",
            "#ff7f00",
            "#ff7f00",
            "#ff7f00",
            "#ff7f00",
            "#ff7f00",
            "#ff7f00",
            "#ff7f00",
            "#ff7f00",
            "#ff7f00",
            "#ff7f00",
            "#ff7f00",
            "#ff7f00",
            "#ff7f00",
            "#ff7f00",
            "#ff7f00",
            "#ff7f00",
            "#ff7f00",
            "#ff7f00",
            "#ff7f00",
            "#ff7f00",
            "#ff7f00",
            "#ff7f00",
            "#ff7f00",
            "#ff7f00",
            "#ff7f00",
            "#ff7f00",
            "#ff7f00",
            "#ff7f00",
            "#ff7f00",
            "#ff7f00",
            "#ff7f00",
            "#ff7f00",
            "#ff7f00",
            "#ff7f00",
            "#ff7f00",
            "#ff7f00",
            "#ff7f00",
            "#ff7f00",
            "#ff7f00",
            "#ff7f00",
            "#ff7f00",
            "#ff7f00",
            "#ff7f00",
            "#ff7f00",
            "#ff7f00",
            "#ff7f00",
            "#ff7f00",
            "#ff7f00",
            "#ff7f00",
            "#ff7f00",
            "#ff7f00",
            "#ff7f00",
            "#ff7f00",
            "#ff7f00",
            "#ff7f00",
            "#ff7f00",
            "#ff7f00",
            "#ff7f00",
            "#ff7f00",
            "#ff7f00",
            "#ff7f00",
            "#ff7f00",
            "#ff7f00",
            "#ff7f00",
            "#ff7f00",
            "#ff7f00",
            "#ff7f00",
            "#ff7f00",
            "#ff7f00",
            "#ff7f00",
            "#ff7f00",
            "#ff7f00",
            "#ff7f00",
            "#ff7f00",
            "#ff7f00",
            "#ff7f00",
            "#ff7f00",
            "#ff7f00",
            "#ff7f00",
            "#ff7f00",
            "#ff7f00",
            "#bb75fc",
            "#bb75fc",
            "#bb75fc",
            "#bb75fc",
            "#33cc33",
            "#a9677c",
            "#8ec9ff",
            "#ff0000",
            "#9000ff",
            "#ffff00",
            "#b7468b",
            "#c3f2ff",
            "#c3f2ff",
            "#c3f2ff",
            "#c3f2ff",
            "#c3f2ff",
            "#c3f2ff",
            "#c3f2ff",
            "#b7468b",
            "#b7468b",
            "#b7468b",
            "#c3f2ff",
            "#b7468b",
            "#b7468b",
            "#c3f2ff",
            "#c3f2ff",
            "#c3f2ff",
            "#c3f2ff",
            "#c3f2ff",
            "#c3f2ff",
            "#c3f2ff",
            "#c3f2ff",
            "#c3f2ff",
            "#c3f2ff",
            "#c3f2ff",
            "#c3f2ff",
            "#b7468b",
            "#c3f2ff",
            "#c3f2ff",
            "#c3f2ff",
            "#c3f2ff",
            "#c3f2ff",
            "#c3f2ff",
            "#c3f2ff",
            "#c3f2ff",
            "#c3f2ff",
            "#c3f2ff",
            "#c3f2ff",
            "#c3f2ff",
            "#c3f2ff",
            "#c3f2ff",
            "#c3f2ff",
            "#c3f2ff",
            "#c3f2ff",
            "#c3f2ff",
            "#c3f2ff",
            "#c3f2ff",
            "#c3f2ff",
            "#c3f2ff",
            "#b7468b",
            "#c3f2ff",
            "#c3f2ff",
            "#c3f2ff"
        ]
    }
]