[
    {
        "threshold": 63.575,
        "color_code": "#ff0000"
    },
    {
        "threshold": 67.35499999999999,
        "color_code": "#9000ff"
    },
    {
        "threshold": 71.36,
        "color_code": "#ffff00"
    },
    {
        "threshold": 75.6,
        "color_code": "#b7468b"
    },
    {
        "threshold": 80.095,
        "color_code": "#c3f2ff"
    },
    {
        "threshold": 84.86,
        "color_code": "#ab0034"
    },
    {
        "threshold": 89.905,
        "color_code": "#7f8bfd"
    },
    {
        "threshold": 95.25,
        "color_code": "#ff7f00"
    },
    {
        "threshold": 100.91499999999999,
        "color_code": "#bb75fc"
    },
    {
        "threshold": 106.91499999999999,
        "color_code": "#33cc33"
    },
    {
        "threshold": 113.27000000000001,
        "color_code": "#a9677c"
    },
    {
        "threshold": 120.005,
        "color_code": "#8ec9ff"
    },
    {
        "threshold": 127.145,
        "color_code": "#ff0000"
    },
    {
        "threshold": 134.70999999999998,
        "color_code": "#9000ff"
    },
    {
        "threshold": 142.72,
        "color_code": "#ffff00"
    },
    {
        "threshold": 151.2,
        "color_code": "#b7468b"
    },
    {
        "threshold": 160.19,
        "color_code": "#c3f2ff"
    },
    {
        "threshold": 169.72,
        "color_code": "#ab0034"
    },
    {
        "threshold": 179.81,
        "color_code": "#7f8bfd"
    },
    {
        "threshold": 190.5,
        "color_code": "#ff7f00"
    },
    {
        "threshold": 201.82999999999998,
        "color_code": "#bb75fc"
    },
    {
        "threshold": 213.82999999999998,
        "color_code": "#33cc33"
    },
    {
        "threshold": 226.54000000000002,
        "color_code": "#a9677c"
    },
    {
        "threshold": 240.01,
        "color_code": "#8ec9ff"
    },
    {
        "threshold": 254.29,
        "color_code": "#ff0000"
    },
    {
        "threshold": 269.41999999999996,
        "color_code": "#9000ff"
    },
    {
        "threshold": 285.44,
        "color_code": "#ffff00"
    },
    {
        "threshold": 302.4,
        "color_code": "#b7468b"
    },
    {
        "threshold": 320.38,
        "color_code": "#c3f2ff"
    },
    {
        "threshold": 339.44,
        "color_code": "#ab0034"
    },
    {
        "threshold": 359.62,
        "color_code": "#7f8bfd"
    },
    {
        "threshold": 381.0,
        "color_code": "#ff7f00"
    },
    {
        "threshold": 403.65999999999997,
        "color_code": "#bb75fc"
    },
    {
        "threshold": 427.65999999999997,
        "color_code": "#33cc33"
    },
    {
        "threshold": 453.08000000000004,
        "color_code": "#a9677c"
    },
    {
        "threshold": 480.02,
        "color_code": "#8ec9ff"
    },
    {
        "threshold": 508.58,
        "color_code": "#ff0000"
    },
    {
        "threshold": 538.8399999999999,
        "color_code": "#9000ff"
    },
    {
        "threshold": 570.88,
        "color_code": "#ffff00"
    },
    {
        "threshold": 604.8,
        "color_code": "#b7468b"
    },
    {
        "threshold": 640.76,
        "color_code": "#c3f2ff"
    },
    {
        "threshold": 678.88,
        "color_code": "#ab0034"
    },
    {
        "threshold": 719.24,
        "color_code": "#7f8bfd"
    },
    {
        "threshold": 762.0,
        "color_code": "#ff7f00"
    },
    {
        "threshold": 807.3199999999999,
        "color_code": "#bb75fc"
    },
    {
        "threshold": 855.3199999999999,
        "color_code": "#33cc33"
    },
    {
        "threshold": 906.1600000000001,
        "color_code": "#a9677c"
    },
    {
        "threshold": 960.04,
        "color_code": "#8ec9ff"
    },
    {
        "threshold": 1017.13,
        "color_code": "#ffffff"
    }
]